…
### total daily activity

``` r
nhanes|>
  pivot_longer(
    min1:min1440,
    names_to = "mim_min",
    names_prefix = "min",
    values_to = "mims_value"
  )|>
  group_by(seqn)|>
  summarize(total=sum(mims_value))
```

    ## # A tibble: 228 × 2
    ##     seqn  total
    ##    <dbl>  <dbl>
    ##  1 62161 13194.
    ##  2 62164 13411.
    ##  3 62169  9991.
    ##  4 62174  8579.
    ##  5 62177 11918.
    ##  6 62178  7489.
    ##  7 62180 14205.
    ##  8 62184 13599.
    ##  9 62189 18551.
    ## 10 62199 14548.
    ## # ℹ 218 more rows
…
